<svg width="80" height="80" viewBox="0 0 80 80" fill="none" xmlns="http://www.w3.org/2000/svg">
<path d="M19.6525 18.2258C20.1169 18.2431 20.5569 18.4388 20.8807 18.7722C21.7274 19.6167 22.5865 20.4404 23.4144 21.3121C24.1276 22.0524 24.1526 22.9637 23.5249 23.606C22.8973 24.2483 21.963 24.2316 21.2311 23.533C20.333 22.6655 19.4523 21.7813 18.5889 20.8804C18.3577 20.6647 18.2028 20.3797 18.1475 20.0683C18.0922 19.7569 18.1395 19.4359 18.2824 19.1538C18.4033 18.888 18.5952 18.6608 18.8369 18.4971C19.0786 18.3334 19.3608 18.2395 19.6525 18.2258Z" fill="#076E81"/>
<path d="M61.5463 60.1017C61.5532 60.3807 61.4811 60.656 61.3383 60.8958C61.1955 61.1357 60.9879 61.3302 60.7392 61.4571C60.1887 61.7491 59.5798 61.7825 59.1314 61.3675C58.0617 60.3832 57.0232 59.3697 56.043 58.2874C55.505 57.6993 55.626 56.8652 56.1682 56.3084C56.7104 55.7516 57.5987 55.6015 58.2097 56.1604C59.2524 57.1217 60.2429 58.1665 61.2418 59.1862C61.4557 59.4417 61.5646 59.7689 61.5463 60.1017Z" fill="#076E81"/>
<path d="M62.8503 51.9354C62.2017 51.9354 61.5511 51.9562 60.9005 51.9354C60.5069 51.9353 60.1284 51.7835 59.8438 51.5117C59.5591 51.2399 59.3901 50.8688 59.3719 50.4757C59.3563 50.2795 59.3796 50.0821 59.4404 49.8949C59.5013 49.7078 59.5986 49.5345 59.7267 49.3851C59.8549 49.2357 60.0112 49.1131 60.1869 49.0243C60.3626 48.9355 60.554 48.8824 60.7503 48.8679C62.1496 48.799 63.5572 48.799 64.9565 48.8679C65.1525 48.8826 65.3437 48.936 65.5189 49.0251C65.6942 49.1142 65.85 49.2372 65.9775 49.3869C66.1049 49.5366 66.2013 49.7101 66.2612 49.8974C66.3212 50.0846 66.3434 50.2819 66.3265 50.4777C66.2848 51.3119 65.6738 51.8853 64.8001 51.9375C64.7486 51.9375 64.6965 51.9375 64.6437 51.9375H62.8503V51.9354Z" fill="#076E81"/>
<path d="M51.8337 62.946C51.8337 63.5967 51.8546 64.2473 51.8337 64.8958C51.8383 65.2906 51.6881 65.6715 51.4152 65.9568C51.1424 66.2421 50.7686 66.4092 50.374 66.4223C50.1781 66.4385 49.9809 66.4159 49.7937 66.3556C49.6066 66.2953 49.4332 66.1987 49.2836 66.0711C49.134 65.9436 49.011 65.7877 48.9219 65.6125C48.8327 65.4373 48.7791 65.2462 48.7641 65.0501C48.6932 63.6509 48.6932 62.2433 48.7641 60.844C48.7786 60.6478 48.8318 60.4564 48.9206 60.2808C49.0094 60.1053 49.132 59.949 49.2815 59.8211C49.4309 59.6932 49.6042 59.5961 49.7914 59.5354C49.9785 59.4748 50.1758 59.4517 50.3719 59.4677C50.7653 59.4864 51.1363 59.6559 51.4081 59.9409C51.6799 60.2258 51.8316 60.6045 51.8317 60.9983C51.8546 61.6469 51.8337 62.2891 51.8337 62.946Z" fill="#076E81"/>
<path d="M30.9512 16.9704C30.9512 17.596 30.9721 18.2216 30.9512 18.8472C30.9116 19.7856 30.3256 20.3966 29.4706 20.4238C29.268 20.441 29.0639 20.4162 28.8713 20.3508C28.6788 20.2854 28.5018 20.1808 28.3516 20.0437C28.2014 19.9066 28.0811 19.7399 27.9984 19.5541C27.9158 19.3683 27.8724 19.1674 27.8711 18.964C27.8148 17.6169 27.8127 16.2531 27.8711 14.9164C27.9128 14.003 28.6177 13.4566 29.4956 13.4983C30.3298 13.5379 30.8991 14.1239 30.9408 15.0248C30.9721 15.6713 30.9408 16.3219 30.9408 16.9725L30.9512 16.9704Z" fill="#076E81"/>
<path d="M16.8583 31.0507C16.2076 31.0507 15.5591 31.0736 14.9106 31.0507C14.0243 31.0111 13.43 30.4251 13.3924 29.5909C13.3549 28.7172 13.9054 28.0186 14.8251 27.9769C16.1722 27.9122 17.536 27.9122 18.8727 27.9769C19.7903 28.0186 20.3471 28.7172 20.3137 29.5868C20.2803 30.4564 19.6651 31.009 18.7267 31.059H16.8499L16.8583 31.0507Z" fill="#076E81"/>
<path d="M79.6852 14.566C78.703 8.22659 75.1496 3.67219 69.1668 1.32409C63.1005 -1.05529 57.2219 -0.262854 52.2859 3.98499C47.1872 8.36422 42.5098 13.2523 37.9742 18.2237C34.4291 22.1192 33.2905 26.9134 34.1496 32.1476C34.3039 33.0818 34.6397 33.9702 34.8274 34.9565C34.6188 34.9086 34.4958 34.8856 34.3748 34.8502C27.9311 32.915 22.1631 34.1808 17.2959 38.8019C12.9417 42.9351 8.75845 47.2517 4.54605 51.5225C2.6564 53.4724 1.30549 55.8796 0.625604 58.5084C0.392045 59.3676 0.208535 60.2434 0 61.1109V65.021C0.185596 65.6466 0.0834137 66.3014 0.237729 66.927C1.36382 71.4897 3.86623 75.0786 7.8555 77.5935C9.98939 78.9829 12.4397 79.8107 14.979 80H18.5679C18.6075 79.8811 18.7056 79.8728 18.8119 79.8624C22.4779 79.5037 25.7186 78.0982 28.3461 75.5499C32.8254 71.2082 37.2902 66.8394 41.563 62.2996C45.2875 58.3374 46.5929 53.5057 45.7671 48.1192C45.6169 47.135 45.2708 46.1945 45.0748 45.2144C45.1227 45.2041 45.1717 45.1992 45.2207 45.1998L45.5919 45.3061C52.0773 47.1829 57.8496 45.8817 62.721 41.2105C66.9042 37.1983 70.9768 33.0776 75.0245 28.9174C78.9178 24.9177 80.5361 20.0588 79.6852 14.566ZM42.0093 55.7537C41.2924 57.6832 40.1572 59.4302 38.6853 60.869C34.7356 64.8312 30.8131 68.808 26.8196 72.7201C22.9617 76.4987 18.3302 77.8 13.1356 76.3152C8.07238 74.87 4.79421 71.4397 3.543 66.3181C2.37104 61.5426 3.4867 57.1884 6.87956 53.6287C11.0294 49.2891 15.3044 45.0663 19.6106 40.8789C23.4309 37.1691 29.4701 36.0513 34.1601 38.1221C32.9088 39.3733 31.6889 40.539 30.4982 41.7318C30.2771 41.9404 30.0436 41.9404 29.7829 41.9174C26.8155 41.711 24.386 42.7828 22.3007 44.8849C18.4449 48.7886 14.5369 52.6403 10.6728 56.5315C8.08489 59.1403 7.24658 62.2892 8.32887 65.7696C9.3924 69.1979 11.8343 71.3083 15.3794 71.9527C18.1884 72.4615 20.8138 71.8254 22.8867 69.8298C26.4505 66.4119 29.9039 62.8772 33.4052 59.403C34.0871 58.7232 34.7711 58.0476 35.4425 57.3594C37.3194 55.4367 38.2369 53.1387 38.0722 50.4444C38.0471 50.2145 38.0791 49.982 38.1653 49.7674C38.2515 49.5528 38.3893 49.3627 38.5664 49.214C39.6862 48.1338 40.7664 47.0161 41.928 45.8462C43.1917 49.2182 43.2063 52.488 42.0093 55.7537ZM34.8315 52.1606C34.6277 53.3166 34.0557 54.3758 33.2008 55.1802C30.6497 57.7396 28.0959 60.2949 25.5392 62.8459C24.0503 64.3328 22.5885 65.8488 21.0662 67.3023C20.3172 68.0384 19.3852 68.5611 18.3666 68.8164C17.348 69.0717 16.2797 69.0505 15.272 68.7548C14.2644 68.4591 13.354 67.8997 12.6349 67.1344C11.9158 66.3691 11.4141 65.4257 11.1816 64.4016C10.727 62.4664 11.0878 60.6167 12.4912 59.1882C16.6703 54.9133 20.9202 50.7051 25.1597 46.4927C25.8862 45.7798 26.82 45.3155 27.8269 45.1664C26.6799 49.7771 30.5733 53.3097 34.8315 52.1606ZM34.8128 48.5467C34.5916 48.7771 34.326 48.9602 34.0321 49.0849C33.7382 49.2097 33.422 49.2735 33.1026 49.2725C32.7833 49.2716 32.4675 49.2058 32.1743 49.0793C31.8812 48.9527 31.6167 48.768 31.397 48.5363C31.1799 48.3112 31.0096 48.0453 30.896 47.754C30.7823 47.4626 30.7276 47.1516 30.735 46.839C30.7424 46.5263 30.8117 46.2183 30.9389 45.9326C31.0661 45.6469 31.2488 45.3893 31.4762 45.1747C35.9986 40.6273 40.5329 36.0889 45.0789 31.5595C45.4087 31.1992 45.8457 30.9545 46.3253 30.8617C46.8049 30.769 47.3016 30.833 47.7419 31.0444C48.6574 31.4323 49.1099 32.1935 49.1683 33.1298C49.1768 33.4644 49.1169 33.7972 48.9921 34.1077C48.8673 34.4183 48.6803 34.7001 48.4426 34.9357C43.8993 39.4748 39.356 44.0118 34.8128 48.5467ZM72.9746 26.5192C68.9165 30.8359 64.6979 35.0108 60.4062 39.098C56.4065 42.908 51.6478 43.8943 46.3447 42.2427C46.2215 42.2023 46.1004 42.1557 45.9819 42.103C45.925 42.0643 45.872 42.0203 45.8234 41.9716C47.0308 40.758 48.2445 39.5589 49.4477 38.3348C49.6563 38.1263 49.8648 38.1721 50.0984 38.1909C53.4704 38.4537 56.0833 37.0043 58.2395 34.5541C58.8651 33.8492 58.8651 32.9171 58.2395 32.3165C57.6139 31.7159 56.7068 31.7368 56.002 32.3832C55.6579 32.6981 55.3347 33.038 55.0031 33.3675C54.6205 33.7581 54.1811 34.0885 53.6997 34.3476C53.2201 34.5999 52.6571 35.0483 52.2066 34.8398C51.85 34.6708 52.2629 34.016 52.2796 33.5677C52.4339 29.8808 49.2892 27.1344 45.6649 27.8434C45.0748 27.9602 44.9913 27.8434 45.1915 27.2887C45.492 26.4287 45.9783 25.6455 46.6158 24.9948C50.6614 20.9576 54.6903 16.8954 58.7588 12.8665C59.8568 11.7528 61.3518 11.1202 62.9157 11.1077C64.4796 11.0952 65.9845 11.7037 67.1002 12.7997C69.4462 15.1103 69.4754 18.7472 67.1648 21.2058C66.7478 21.6416 66.3015 22.0399 65.9261 22.5008C65.6807 22.793 65.5561 23.1679 65.5778 23.5489C65.5995 23.9299 65.7659 24.2882 66.0429 24.5507C66.297 24.8187 66.6414 24.983 67.0097 25.0119C67.3779 25.0408 67.7437 24.9322 68.0365 24.7071C71.6775 21.7229 73.0413 17.6169 71.2167 13.392C68.7142 7.61975 61.2529 6.15375 56.7047 10.5163C54.1168 13.0062 51.6186 15.5774 49.0807 18.1195C47.5737 19.6223 46.066 21.1293 44.5576 22.6405C42.5932 24.6028 41.6381 26.9592 41.8133 29.7411C41.8377 29.9431 41.8124 30.148 41.7398 30.338C41.6671 30.5281 41.5492 30.6975 41.3962 30.8317C40.2701 31.9349 39.1711 33.0756 37.9908 34.2705C37.1933 32.3083 36.8703 30.1855 37.0483 28.0749C37.3673 24.4798 38.9105 21.4915 41.4713 18.9661C45.3938 15.0957 49.2454 11.1502 53.1763 7.28818C60.2874 0.293933 72.1113 2.65454 75.7356 11.853C77.8626 17.2457 76.9368 22.2943 72.9746 26.5192Z" fill="#076E81"/>
<path d="M63.7166 28.4419C63.718 28.6434 63.6792 28.8431 63.6024 29.0294C63.5256 29.2156 63.4125 29.3847 63.2695 29.5267C63.1266 29.6686 62.9568 29.7806 62.77 29.8561C62.5832 29.9316 62.3832 29.9691 62.1818 29.9663C61.9732 29.9684 61.7663 29.9282 61.5737 29.848C61.3811 29.7678 61.2068 29.6493 61.0613 29.4998C60.9159 29.3502 60.8023 29.1727 60.7275 28.978C60.6527 28.7832 60.6182 28.5753 60.6261 28.3668C60.6413 27.9595 60.8165 27.5746 61.1135 27.2956C61.4105 27.0165 61.8056 26.8657 62.2131 26.8758C62.4151 26.8782 62.6147 26.9208 62.8001 27.0012C62.9855 27.0815 63.1531 27.198 63.2931 27.3437C63.433 27.4895 63.5425 27.6617 63.6152 27.8502C63.688 28.0388 63.7224 28.2399 63.7166 28.4419Z" fill="#076E81"/>
</svg>
